........................
----------------------------------------------------------------------
Ran 24 tests in 0.098s

OK
Name             Stmts   Miss Branch BrPart  Cover   Missing
------------------------------------------------------------
Collatz.py          61      0     26      0   100%
TestCollatz.py     100      0      0      0   100%
------------------------------------------------------------
TOTAL              161      0     26      0   100%
